[gd_resource type="ShaderMaterial" load_steps=2 format=2]

[sub_resource type="Shader" id=27]
code = "shader_type canvas_item;

uniform vec4 overlay_color : hint_color = vec4(0.0, 0.0, 1.0, 1.0);
uniform float strength : hint_range(0.0,1.0) = 0.0;

uniform float water_level : hint_range(-10000.0,10000.0) = 50.0;
uniform mat4 camera_view;
varying vec2 world_position;

void vertex() {
	world_position = (inverse(camera_view) * WORLD_MATRIX * vec4(VERTEX, 0.0, 1.0)).xy;
}

void fragment() {
	if (world_position.y > water_level) {
	
	  vec4 custom_color = texture(TEXTURE, UV);
	  custom_color.rgb = mix(custom_color.rgb, overlay_color.rgb, strength);
	  COLOR = custom_color;
	} else {
	  COLOR = texture(TEXTURE, UV);
	}
}"

[resource]
shader = SubResource( 27 )
shader_param/overlay_color = Color( 0.054902, 0.054902, 0.588235, 1 )
shader_param/strength = 0.47
shader_param/water_level = -6741.57
shader_param/camera_view = Transform( 8, 0, -408, 0, 8, 528, 0, 0, 0, 0, 0, 0 )
